Library\Bee\artifacts\mvdfrm\UnityEngine.TestRunner.ref.dll_7423F2FBC6CF80C4.mvfrm
Library\Bee\artifacts\mvdfrm\UnityEditor.Graphs.dll_BE87E804CA94584A.mvfrm
Library\Bee\artifacts\mvdfrm\UnityEditor.CoreModule.dll_11402D0A5BFDE618.mvfrm
Library\Bee\artifacts\mvdfrm\UnityEditor.DeviceSimulatorModule.dll_6E51CAA84C19EB29.mvfrm
Library\Bee\artifacts\mvdfrm\UnityEditor.DiagnosticsModule.dll_914CE3CAE081AB37.mvfrm
Library\Bee\artifacts\mvdfrm\UnityEditor.dll_D38F5CA92370E7FD.mvfrm
Library\Bee\artifacts\mvdfrm\UnityEditor.GraphViewModule.dll_D09B5EE8A30B0E2E.mvfrm
Library\Bee\artifacts\mvdfrm\UnityEditor.PackageManagerUIModule.dll_208CCFDD21ADE574.mvfrm
Library\Bee\artifacts\mvdfrm\UnityEditor.QuickSearchModule.dll_1C5C64D83958A790.mvfrm
Library\Bee\artifacts\mvdfrm\UnityEditor.SceneTemplateModule.dll_59214F5090C97811.mvfrm
Library\Bee\artifacts\mvdfrm\UnityEditor.TextCoreFontEngineModule.dll_9BD3E9E16B457C96.mvfrm
Library\Bee\artifacts\mvdfrm\UnityEditor.TextCoreTextEngineModule.dll_E3BC2052FAC935B4.mvfrm
Library\Bee\artifacts\mvdfrm\UnityEditor.UIBuilderModule.dll_25240C0515C38762.mvfrm
Library\Bee\artifacts\mvdfrm\UnityEditor.UIElementsModule.dll_B13F5DA7C43FEE54.mvfrm
Library\Bee\artifacts\mvdfrm\UnityEditor.UIElementsSamplesModule.dll_F779143E33B5F459.mvfrm
Library\Bee\artifacts\mvdfrm\UnityEditor.UIServiceModule.dll_5E161D67FEFAD77C.mvfrm
Library\Bee\artifacts\mvdfrm\UnityEditor.UnityConnectModule.dll_D77A17C783DDA0CE.mvfrm
Library\Bee\artifacts\mvdfrm\UnityEngine.AccessibilityModule.dll_8BC6BAE7913F9FAE.mvfrm
Library\Bee\artifacts\mvdfrm\UnityEngine.AIModule.dll_4B4443CFC21BE16C.mvfrm
Library\Bee\artifacts\mvdfrm\UnityEngine.AndroidJNIModule.dll_2F88467B0D5F5D2A.mvfrm
Library\Bee\artifacts\mvdfrm\UnityEngine.AnimationModule.dll_9F20DB117D67E2D4.mvfrm
Library\Bee\artifacts\mvdfrm\UnityEngine.ARModule.dll_04B708D31F394035.mvfrm
Library\Bee\artifacts\mvdfrm\UnityEngine.AssetBundleModule.dll_604597C99BBF5C82.mvfrm
Library\Bee\artifacts\mvdfrm\UnityEngine.AudioModule.dll_4BF21135763E6EC6.mvfrm
Library\Bee\artifacts\mvdfrm\UnityEngine.ClothModule.dll_B2DA6E30505B4DAA.mvfrm
Library\Bee\artifacts\mvdfrm\UnityEngine.ClusterInputModule.dll_57168CDD35657394.mvfrm
Library\Bee\artifacts\mvdfrm\UnityEngine.ClusterRendererModule.dll_73FE8D19BBD4F8AD.mvfrm
Library\Bee\artifacts\mvdfrm\UnityEngine.CoreModule.dll_3461005D04035143.mvfrm
Library\Bee\artifacts\mvdfrm\UnityEngine.CrashReportingModule.dll_BBDF61B7C255CCBB.mvfrm
Library\Bee\artifacts\mvdfrm\UnityEngine.DirectorModule.dll_C5E198CF31805820.mvfrm
Library\Bee\artifacts\mvdfrm\UnityEngine.dll_0633A38181E474E2.mvfrm
Library\Bee\artifacts\mvdfrm\UnityEngine.DSPGraphModule.dll_CB32FA38A3E12941.mvfrm
Library\Bee\artifacts\mvdfrm\UnityEngine.GameCenterModule.dll_59D59095D3A04E1B.mvfrm
Library\Bee\artifacts\mvdfrm\UnityEngine.GIModule.dll_E3808CDD5DCAC986.mvfrm
Library\Bee\artifacts\mvdfrm\UnityEngine.GridModule.dll_11D21C4B1C57E73A.mvfrm
Library\Bee\artifacts\mvdfrm\UnityEngine.HotReloadModule.dll_20699917589AFE56.mvfrm
Library\Bee\artifacts\mvdfrm\UnityEngine.ImageConversionModule.dll_DFF08ACA3DF9B0A1.mvfrm
Library\Bee\artifacts\mvdfrm\UnityEngine.IMGUIModule.dll_8451B09C3C7002A7.mvfrm
Library\Bee\artifacts\mvdfrm\UnityEngine.InputLegacyModule.dll_F18AB2E833B11273.mvfrm
Library\Bee\artifacts\mvdfrm\UnityEngine.InputModule.dll_B267D8E5EC76936A.mvfrm
Library\Bee\artifacts\mvdfrm\UnityEngine.JSONSerializeModule.dll_EBDE4423907B0038.mvfrm
Library\Bee\artifacts\mvdfrm\UnityEngine.LocalizationModule.dll_9563572FCCE1668D.mvfrm
Library\Bee\artifacts\mvdfrm\UnityEngine.NVIDIAModule.dll_664FB1E96C219C0F.mvfrm
Library\Bee\artifacts\mvdfrm\UnityEngine.ParticleSystemModule.dll_0EF1AB0430675849.mvfrm
Library\Bee\artifacts\mvdfrm\UnityEngine.PerformanceReportingModule.dll_DA75150C7966E902.mvfrm
Library\Bee\artifacts\mvdfrm\UnityEngine.Physics2DModule.dll_EBC6CB021E64DA69.mvfrm
Library\Bee\artifacts\mvdfrm\UnityEngine.PhysicsModule.dll_17778FBE48744E57.mvfrm
Library\Bee\artifacts\mvdfrm\UnityEngine.ProfilerModule.dll_F827D205CAD9DF2D.mvfrm
Library\Bee\artifacts\mvdfrm\UnityEngine.RuntimeInitializeOnLoadManagerInitializerModule.dll_0EE88B82E8889D32.mvfrm
Library\Bee\artifacts\mvdfrm\UnityEngine.ScreenCaptureModule.dll_05C5F1A8A4E72C9A.mvfrm
Library\Bee\artifacts\mvdfrm\UnityEngine.SharedInternalsModule.dll_6401C99FB527ABF1.mvfrm
Library\Bee\artifacts\mvdfrm\UnityEngine.SpriteMaskModule.dll_43020325F50FE395.mvfrm
Library\Bee\artifacts\mvdfrm\UnityEngine.SpriteShapeModule.dll_79A6C5245161948C.mvfrm
Library\Bee\artifacts\mvdfrm\UnityEngine.StreamingModule.dll_53B5C861CCEF9A12.mvfrm
Library\Bee\artifacts\mvdfrm\UnityEngine.SubstanceModule.dll_3060DCAB18429820.mvfrm
Library\Bee\artifacts\mvdfrm\UnityEngine.SubsystemsModule.dll_ADAF6987C357CBA8.mvfrm
Library\Bee\artifacts\mvdfrm\UnityEngine.TerrainModule.dll_31BE0B2D1E329745.mvfrm
Library\Bee\artifacts\mvdfrm\UnityEngine.TerrainPhysicsModule.dll_0F6C53D749AA52D6.mvfrm
Library\Bee\artifacts\mvdfrm\UnityEngine.TextCoreFontEngineModule.dll_1A3365347E433B61.mvfrm
Library\Bee\artifacts\mvdfrm\UnityEngine.TextCoreTextEngineModule.dll_621B9BA60DC6F47F.mvfrm
Library\Bee\artifacts\mvdfrm\UnityEngine.TextRenderingModule.dll_2F0563B35C1EAC8F.mvfrm
Library\Bee\artifacts\mvdfrm\UnityEngine.TilemapModule.dll_D0BA72AE35EF784E.mvfrm
Library\Bee\artifacts\mvdfrm\UnityEngine.TLSModule.dll_7065B4FEFB0CB16B.mvfrm
Library\Bee\artifacts\mvdfrm\UnityEngine.UaaLAnalyticsModule.dll_79B09383362F97BF.mvfrm
Library\Bee\artifacts\mvdfrm\UnityEngine.UIElementsModule.dll_B1EDCAEFC684079F.mvfrm
Library\Bee\artifacts\mvdfrm\UnityEngine.UIElementsNativeModule.dll_6B06847293265596.mvfrm
Library\Bee\artifacts\mvdfrm\UnityEngine.UIModule.dll_46B7E1FD1E62E718.mvfrm
Library\Bee\artifacts\mvdfrm\UnityEngine.UmbraModule.dll_C6C6BD4E03651A39.mvfrm
Library\Bee\artifacts\mvdfrm\UnityEngine.UNETModule.dll_C7074846511246BC.mvfrm
Library\Bee\artifacts\mvdfrm\UnityEngine.UnityAnalyticsModule.dll_2E911BCDDC8EAA45.mvfrm
Library\Bee\artifacts\mvdfrm\UnityEngine.UnityConnectModule.dll_C4D99BD67E65A179.mvfrm
Library\Bee\artifacts\mvdfrm\UnityEngine.UnityCurlModule.dll_D23D7C42ED7BD4C1.mvfrm
Library\Bee\artifacts\mvdfrm\UnityEngine.UnityTestProtocolModule.dll_B33BCA308DB149AF.mvfrm
Library\Bee\artifacts\mvdfrm\UnityEngine.UnityWebRequestAssetBundleModule.dll_9B76FB2440C978D6.mvfrm
Library\Bee\artifacts\mvdfrm\UnityEngine.UnityWebRequestAudioModule.dll_527168EAFFD1B39A.mvfrm
Library\Bee\artifacts\mvdfrm\UnityEngine.UnityWebRequestModule.dll_F18F927448EE4B20.mvfrm
Library\Bee\artifacts\mvdfrm\UnityEngine.UnityWebRequestTextureModule.dll_CC991EB9AC8C20AF.mvfrm
Library\Bee\artifacts\mvdfrm\UnityEngine.UnityWebRequestWWWModule.dll_2CDDE101FD86B0EB.mvfrm
Library\Bee\artifacts\mvdfrm\UnityEngine.VehiclesModule.dll_3DA4924EABAA27BB.mvfrm
Library\Bee\artifacts\mvdfrm\UnityEngine.VFXModule.dll_F1444D6DD17A1AD8.mvfrm
Library\Bee\artifacts\mvdfrm\UnityEngine.VideoModule.dll_70FB95A038D08A6B.mvfrm
Library\Bee\artifacts\mvdfrm\UnityEngine.VirtualTexturingModule.dll_8F9338E16BD4D621.mvfrm
Library\Bee\artifacts\mvdfrm\UnityEngine.VRModule.dll_998A0882C01D6C90.mvfrm
Library\Bee\artifacts\mvdfrm\UnityEngine.WindModule.dll_AAAFDB859539CFAC.mvfrm
Library\Bee\artifacts\mvdfrm\UnityEngine.XRModule.dll_CC48CB874957B9EE.mvfrm
Library\Bee\artifacts\mvdfrm\Unity.Android.Gradle.dll_6CD7559F8CC93C00.mvfrm
Library\Bee\artifacts\mvdfrm\Unity.Android.Types.dll_8B0070458B94C03C.mvfrm
Library\Bee\artifacts\mvdfrm\UnityEditor.Android.Extensions.dll_F70D1149A8386840.mvfrm
Library\Bee\artifacts\mvdfrm\UnityEditor.UWP.Extensions.dll_8AAF7C93793CCBB3.mvfrm
Library\Bee\artifacts\mvdfrm\UnityEditor.WebGL.Extensions.dll_398822E67559F618.mvfrm
Library\Bee\artifacts\mvdfrm\UnityEditor.WindowsStandalone.Extensions.dll_1374A69304AD4508.mvfrm