# This file uses centimeters as units for non-parametric coordinates.

mtllib mesh_bakeryshelf2.mtl
g default
v 0.836542 1.142267 2.938023
v 0.836542 1.142267 2.967905
v 0.836542 0.908299 2.676590
v 0.836542 0.908299 2.706472
v 0.836542 0.382138 2.594927
v 0.836542 0.382138 2.565045
v 0.732464 0.382138 2.594927
v 0.732464 0.908299 2.706472
v 0.732464 1.142267 2.967905
v 0.732464 1.142267 2.938023
v 0.732464 0.908299 2.676590
v 0.732464 0.382138 2.565045
v 0.810154 1.116975 2.967784
v -0.802327 1.116975 2.967784
v 0.810154 1.142267 2.967784
v -0.802327 1.142267 2.967784
v 0.810154 1.142267 3.386910
v -0.802327 1.142267 3.386910
v 0.810154 1.116975 3.386910
v -0.802327 1.116975 3.386910
v -0.828716 1.142267 2.938023
v -0.828716 1.142267 2.967905
v -0.828716 0.908299 2.676590
v -0.828716 0.908299 2.706472
v -0.828716 0.382138 2.565045
v -0.828716 0.382138 2.594927
v -0.724638 0.382138 2.565045
v -0.724638 0.908299 2.676590
v -0.724638 1.142267 2.938023
v -0.724638 1.142267 2.967905
v -0.724638 0.908299 2.706472
v -0.724638 0.382138 2.594927
v -0.802327 1.142267 3.386910
v -0.828716 1.142267 3.386910
v -0.802327 1.142267 2.967784
v -0.828716 1.142267 2.967784
v -0.802327 0.908299 2.706351
v -0.828716 0.908299 2.706351
v -0.802327 0.382138 3.386910
v -0.828716 0.382138 2.594807
v -0.828716 0.382138 3.386910
v -0.802327 0.382138 2.594807
v -0.828716 0.903937 2.714846
v -0.828716 1.130919 3.375084
v -0.828716 1.130919 2.968473
v -0.828716 0.393486 3.375084
v -0.828716 0.393486 2.606632
v -0.802327 0.903937 2.714846
v -0.802327 1.130919 2.968473
v -0.802327 1.130919 3.375084
v -0.802327 0.393486 2.606632
v -0.802327 0.393486 3.375084
v 0.836542 1.142267 3.386910
v 0.810154 1.142267 3.386910
v 0.836542 1.142267 2.967784
v 0.810154 1.142267 2.967784
v 0.836542 0.908299 2.706351
v 0.810154 0.908299 2.706351
v 0.836542 0.382138 3.386910
v 0.810154 0.382138 2.594807
v 0.810154 0.382138 3.386910
v 0.836542 0.382138 2.594807
v 0.810154 0.903937 2.714846
v 0.810154 1.130919 3.375084
v 0.810154 1.130919 2.968473
v 0.810154 0.393486 3.375084
v 0.810154 0.393486 2.606632
v 0.836542 0.903937 2.714846
v 0.836542 1.130919 2.968473
v 0.836542 1.130919 3.375084
v 0.836542 0.393486 2.606632
v 0.836542 0.393486 3.375084
v 0.759952 0.935344 2.767711
v -0.788211 0.935344 2.767711
v 0.759952 0.965468 2.767711
v -0.788211 0.965468 2.767711
v 0.759952 0.965468 3.346895
v -0.788211 0.965468 3.346895
v 0.759952 0.935344 3.346895
v -0.788211 0.935344 3.346895
v -0.763106 0.382138 3.338955
v -0.747747 0.382138 3.338955
v -0.740068 0.382138 3.325654
v -0.747747 0.382138 3.312353
v -0.763106 0.382138 3.312353
v -0.770786 0.382138 3.325654
v -0.763106 0.941119 3.338955
v -0.747747 0.941119 3.338955
v -0.740068 0.941119 3.325654
v -0.747747 0.941119 3.312353
v -0.763106 0.941119 3.312353
v -0.770786 0.941119 3.325654
v -0.755427 0.382138 3.325654
v -0.755427 0.941119 3.325654
v 0.751786 0.382138 3.338955
v 0.736426 0.382138 3.338955
v 0.728747 0.382138 3.325654
v 0.736426 0.382138 3.312353
v 0.751786 0.382138 3.312353
v 0.759465 0.382138 3.325654
v 0.751786 0.941119 3.338955
v 0.736426 0.941119 3.338955
v 0.728747 0.941119 3.325654
v 0.736426 0.941119 3.312353
v 0.751786 0.941119 3.312353
v 0.759465 0.941119 3.325654
v 0.744106 0.382138 3.325654
v 0.744106 0.941119 3.325654
v 0.836542 0.019388 2.669618
v 0.836542 0.382138 2.565045
v -0.828716 0.019388 2.669618
v -0.828716 0.382138 2.565045
v 0.836542 0.019388 3.386910
v 0.836542 0.382138 3.386910
v -0.828716 0.019388 3.386910
v -0.828716 0.382138 3.386910
vt 0.143680 0.939074
vt 0.148214 0.948314
vt 0.036198 0.902987
vt 0.031664 0.893748
vt 0.323292 0.893713
vt 0.327827 0.902953
vt 0.278087 0.410051
vt 0.277632 0.388439
vt 0.388512 0.402243
vt 0.385431 0.423056
vt 0.205826 0.402609
vt 0.210179 0.423043
vt 0.418219 0.235164
vt 0.418229 0.297445
vt 0.400347 0.297448
vt 0.400337 0.235167
vt 0.628161 0.235130
vt 0.628171 0.297410
vt 0.950012 0.235078
vt 0.950022 0.297358
vt 0.209420 0.397786
vt 0.280713 0.383147
vt 0.390695 0.396483
vt 0.095317 0.339168
vt 0.095266 0.026778
vt 0.100166 0.026777
vt 0.100217 0.339167
vt 0.181364 0.026764
vt 0.181415 0.339154
vt 0.186264 0.026763
vt 0.186315 0.339153
vt 0.014118 0.339181
vt 0.014068 0.026791
vt 0.100165 0.021877
vt 0.181363 0.021864
vt 0.181416 0.344054
vt 0.100217 0.344067
vt 0.099629 0.389107
vt 0.096849 0.393909
vt 0.031784 0.406759
vt 0.035031 0.402391
vt 0.199226 0.400764
vt 0.197289 0.405996
vt 0.628163 0.235127
vt 0.950014 0.235095
vt 0.950020 0.297376
vt 0.628169 0.297407
vt 0.418221 0.235147
vt 0.418227 0.297428
vt 0.400339 0.235149
vt 0.400345 0.297430
vt 0.097176 0.413286
vt 0.035774 0.425243
vt 0.194673 0.425222
vt 0.151866 0.986235
vt 0.039990 0.940942
vt 0.035462 0.931713
vt 0.147338 0.977005
vt 0.331276 0.940958
vt 0.326748 0.931728
vt 0.674873 0.560937
vt 0.944034 0.560981
vt 0.944031 0.577929
vt 0.674870 0.577885
vt 0.905527 0.390663
vt 0.905526 0.398223
vt 0.687772 0.398201
vt 0.687773 0.390641
vt 0.681653 0.499437
vt 0.943354 0.499448
vt 0.943353 0.519133
vt 0.681652 0.519122
vt 0.946747 0.347188
vt 0.672129 0.347206
vt 0.672128 0.333732
vt 0.946746 0.333714
vt 0.674878 0.529415
vt 0.944039 0.529459
vt 0.943595 0.536746
vt 0.682471 0.536703
vt 0.681654 0.466451
vt 0.943355 0.466463
vt 0.940803 0.473113
vt 0.686916 0.473102
vt 0.974125 0.448717
vt 0.649223 0.448688
vt 0.654074 0.444034
vt 0.969275 0.444062
vt 0.902274 0.409170
vt 0.905525 0.412558
vt 0.687771 0.412536
vt 0.691022 0.409149
vt 0.946748 0.370072
vt 0.672130 0.370090
vt 0.679050 0.365385
vt 0.945469 0.365367
vt 0.686915 0.492787
vt 0.940802 0.492798
vt 0.682468 0.553651
vt 0.943592 0.553694
vt 0.691023 0.401589
vt 0.902275 0.401611
vt 0.649225 0.428555
vt 0.974127 0.428583
vt 0.969276 0.433237
vt 0.654075 0.433210
vt 0.945468 0.351893
vt 0.679049 0.351911
vt 0.531331 0.556268
vt 0.532913 0.341588
vt 0.546431 0.341687
vt 0.544848 0.556368
vt 0.687772 0.398201
vt 0.687773 0.390641
vt 0.905527 0.390664
vt 0.905526 0.398224
vt 0.473646 0.548266
vt 0.475127 0.343237
vt 0.490549 0.343348
vt 0.489069 0.548377
vt 0.596281 0.569321
vt 0.592945 0.328169
vt 0.604777 0.328006
vt 0.608113 0.569157
vt 0.552240 0.342083
vt 0.550705 0.550354
vt 0.495744 0.345385
vt 0.494309 0.544293
vt 0.974125 0.448717
vt 0.649223 0.448688
vt 0.654074 0.444034
vt 0.969275 0.444062
vt 0.691023 0.401589
vt 0.902275 0.401611
vt 0.608993 0.334025
vt 0.612229 0.567977
vt 0.516391 0.343535
vt 0.514911 0.548564
vt 0.509731 0.544404
vt 0.511167 0.345496
vt 0.571573 0.341873
vt 0.569991 0.556553
vt 0.564223 0.550453
vt 0.565758 0.342183
vt 0.902274 0.409171
vt 0.905524 0.412559
vt 0.687771 0.412536
vt 0.691022 0.409149
vt 0.649225 0.428555
vt 0.974127 0.428583
vt 0.969276 0.433237
vt 0.654075 0.433210
vt 0.624873 0.327728
vt 0.628208 0.568879
vt 0.624061 0.567813
vt 0.620825 0.333862
vt 0.119556 0.092728
vt 0.125310 0.092729
vt 0.125295 0.274463
vt 0.119541 0.274463
vt 0.131065 0.092729
vt 0.131049 0.274464
vt 0.136819 0.092730
vt 0.136804 0.274464
vt 0.142573 0.092730
vt 0.142558 0.274465
vt 0.148328 0.092731
vt 0.148312 0.274465
vt 0.154082 0.092731
vt 0.154067 0.274466
vt 0.039328 0.112621
vt 0.074604 0.112621
vt 0.056965 0.143171
vt 0.021689 0.143170
vt 0.039327 0.173720
vt 0.074603 0.173721
vt 0.092241 0.143172
vt 0.092241 0.143172
vt 0.074603 0.173721
vt 0.056965 0.143171
vt 0.039327 0.173720
vt 0.021689 0.143170
vt 0.039328 0.112621
vt 0.074604 0.112621
vt 0.119541 0.274463
vt 0.119556 0.092728
vt 0.125310 0.092729
vt 0.125295 0.274463
vt 0.131064 0.092729
vt 0.131050 0.274464
vt 0.136819 0.092730
vt 0.136804 0.274464
vt 0.142573 0.092730
vt 0.142558 0.274465
vt 0.148327 0.092731
vt 0.148313 0.274465
vt 0.154082 0.092731
vt 0.154067 0.274466
vt 0.074603 0.173721
vt 0.056965 0.143171
vt 0.092241 0.143172
vt 0.039327 0.173720
vt 0.021689 0.143170
vt 0.039328 0.112621
vt 0.074604 0.112621
vt 0.074604 0.112621
vt 0.056965 0.143171
vt 0.039328 0.112621
vt 0.021689 0.143170
vt 0.039327 0.173720
vt 0.074603 0.173721
vt 0.092241 0.143172
vt 0.583921 0.102973
vt 0.211398 0.103004
vt 0.211391 0.018551
vt 0.583914 0.018520
vt 0.214727 0.369580
vt 0.214720 0.202606
vt 0.288418 0.202603
vt 0.288425 0.348331
vt 0.297466 0.349211
vt 0.297473 0.203483
vt 0.371171 0.203486
vt 0.371163 0.370460
vt 0.974322 0.039361
vt 0.974323 0.193982
vt 0.615356 0.193986
vt 0.615354 0.039365
vt 0.603764 0.211082
vt 0.603788 0.021472
vt 0.987976 0.021521
vt 0.987951 0.211132
vt 0.584120 0.107445
vt 0.584243 0.188592
vt 0.211726 0.189160
vt 0.211603 0.108013
vn 1.000000 0.000000 0.000000
vn 1.000000 0.000000 0.000000
vn 1.000000 0.000000 0.000000
vn 1.000000 0.000000 0.000000
vn 1.000000 0.000000 0.000000
vn 1.000000 0.000000 0.000000
vn 1.000000 0.000000 0.000000
vn 1.000000 0.000000 0.000000
vn 0.000000 -0.440505 0.897750
vn 0.000000 -0.440505 0.897750
vn 0.000000 -0.207389 0.978259
vn 0.000000 -0.207389 0.978259
vn 0.000000 -0.745164 0.666882
vn 0.000000 -0.440505 0.897750
vn 0.000000 -0.440505 0.897750
vn 0.000000 -0.745164 0.666882
vn 0.000000 1.000000 0.000000
vn 0.000000 1.000000 0.000000
vn 0.000000 1.000000 0.000000
vn 0.000000 1.000000 0.000000
vn -0.000000 0.440505 -0.897750
vn -0.000000 0.440505 -0.897750
vn -0.000000 0.745164 -0.666882
vn -0.000000 0.745164 -0.666882
vn -0.000000 0.207388 -0.978259
vn -0.000000 0.207388 -0.978259
vn -0.000000 0.440505 -0.897750
vn -0.000000 0.440505 -0.897750
vn -1.000000 0.000001 0.000000
vn -1.000000 0.000001 0.000000
vn -1.000000 0.000001 0.000000
vn -1.000000 0.000001 0.000000
vn -1.000000 0.000000 0.000000
vn -1.000000 0.000000 0.000000
vn -1.000000 0.000000 0.000000
vn -1.000000 0.000000 0.000000
vn -0.000000 0.000000 -1.000000
vn -0.000000 0.000000 -1.000000
vn -0.000000 0.000000 -1.000000
vn -0.000000 0.000000 -1.000000
vn 0.000000 1.000000 0.000000
vn 0.000000 1.000000 0.000000
vn 0.000000 1.000000 0.000000
vn 0.000000 1.000000 0.000000
vn 0.000000 0.000000 1.000000
vn 0.000000 0.000000 1.000000
vn 0.000000 0.000000 1.000000
vn 0.000000 0.000000 1.000000
vn 0.000000 -1.000000 0.000000
vn 0.000000 -1.000000 0.000000
vn 0.000000 -1.000000 0.000000
vn 0.000000 -1.000000 0.000000
vn -1.000000 0.000000 0.000000
vn -1.000000 0.000000 0.000000
vn -1.000000 0.000000 0.000000
vn -1.000000 0.000000 0.000000
vn 1.000000 0.000000 0.000000
vn 1.000000 0.000000 0.000000
vn 1.000000 0.000000 0.000000
vn 1.000000 0.000000 0.000000
vn -1.000000 0.000000 0.000000
vn -1.000000 0.000000 0.000000
vn -1.000000 0.000000 0.000000
vn -1.000000 0.000000 0.000000
vn -1.000000 0.000000 0.000000
vn -1.000000 0.000000 0.000000
vn -1.000000 0.000000 0.000000
vn -1.000000 0.000000 0.000000
vn -0.000000 0.207388 -0.978259
vn -0.000000 0.207388 -0.978259
vn -0.000000 0.207388 -0.978259
vn -0.000000 0.207388 -0.978259
vn -0.000000 0.745164 -0.666882
vn -0.000000 0.745164 -0.666882
vn -0.000000 0.745164 -0.666882
vn -0.000000 0.745164 -0.666882
vn 0.000000 1.000000 0.000000
vn 0.000000 1.000000 0.000000
vn 0.000000 1.000000 0.000000
vn 0.000000 1.000000 0.000000
vn 0.000000 -0.745164 0.666882
vn 0.000000 -0.440505 0.897750
vn 0.000000 -0.440505 0.897750
vn 0.000000 -0.745164 0.666882
vn 0.000000 -0.207389 0.978259
vn 0.000000 -0.440505 0.897750
vn 0.000000 -0.440505 0.897750
vn 0.000000 -0.207389 0.978259
vn 1.000000 0.000000 0.000000
vn 1.000000 0.000000 0.000000
vn 1.000000 0.000000 0.000000
vn 1.000000 0.000000 0.000000
vn 1.000000 0.000000 0.000000
vn 1.000000 0.000000 0.000000
vn 1.000000 0.000000 0.000000
vn 1.000000 0.000000 0.000000
vn 0.000000 1.000000 0.000000
vn 0.000000 1.000000 0.000000
vn 0.000000 1.000000 0.000000
vn 0.000000 1.000000 0.000000
vn 0.000000 0.000000 1.000000
vn 0.000000 0.000000 1.000000
vn 0.000000 0.000000 1.000000
vn 0.000000 0.000000 1.000000
vn -0.000000 0.745163 -0.666882
vn -0.000000 0.745163 -0.666882
vn -0.000000 0.745163 -0.666882
vn -0.000000 0.745163 -0.666882
vn -0.000000 0.207389 -0.978259
vn -0.000000 0.207389 -0.978259
vn -0.000000 0.207389 -0.978259
vn -0.000000 0.207389 -0.978259
vn -1.000000 0.000007 0.000000
vn -1.000000 0.000007 0.000000
vn -1.000000 0.000007 0.000000
vn -1.000000 0.000007 0.000000
vn -1.000000 0.000003 -0.000004
vn -1.000000 0.000003 -0.000004
vn -1.000000 0.000003 -0.000004
vn -1.000000 0.000003 -0.000004
vn -1.000000 -0.000001 0.000000
vn -1.000000 -0.000001 0.000000
vn -1.000000 -0.000001 0.000000
vn -1.000000 -0.000001 0.000000
vn -1.000000 0.000000 0.000000
vn -1.000000 0.000000 0.000000
vn -1.000000 0.000000 0.000000
vn -1.000000 0.000000 0.000000
vn -1.000000 0.000001 -0.000003
vn -1.000000 0.000001 -0.000003
vn -1.000000 0.000001 -0.000003
vn -1.000000 0.000001 -0.000003
vn 1.000000 0.000000 0.000000
vn 1.000000 0.000000 0.000000
vn 1.000000 0.000000 0.000000
vn 1.000000 0.000000 0.000000
vn 1.000000 0.000002 0.000000
vn 1.000000 0.000002 0.000000
vn 1.000000 0.000002 0.000000
vn 1.000000 0.000002 0.000000
vn 1.000000 0.000000 0.000000
vn 1.000000 0.000000 0.000000
vn 1.000000 0.000000 0.000000
vn 1.000000 0.000000 0.000000
vn 1.000000 0.000000 0.000000
vn 1.000000 0.000000 0.000000
vn 1.000000 0.000000 0.000000
vn 1.000000 0.000000 0.000000
vn 1.000000 -0.000001 0.000000
vn 1.000000 -0.000001 0.000000
vn 1.000000 -0.000001 0.000000
vn 1.000000 -0.000001 0.000000
vn -0.000000 0.000000 -1.000000
vn -0.000000 0.000000 -1.000000
vn -0.000000 0.000000 -1.000000
vn -0.000000 0.000000 -1.000000
vn 0.000000 1.000000 0.000000
vn 0.000000 1.000000 0.000000
vn 0.000000 1.000000 0.000000
vn 0.000000 1.000000 0.000000
vn 0.000000 -0.207388 0.978259
vn 0.000000 -0.207388 0.978259
vn 0.000000 -0.207388 0.978259
vn 0.000000 -0.207388 0.978259
vn 0.000000 -0.745163 0.666882
vn 0.000000 -0.745163 0.666882
vn 0.000000 -0.745163 0.666882
vn 0.000000 -0.745163 0.666882
vn 0.000000 -1.000000 0.000000
vn 0.000000 -1.000000 0.000000
vn 0.000000 -1.000000 0.000000
vn 0.000000 -1.000000 0.000000
vn 0.000000 1.000000 0.000000
vn 0.000000 1.000000 0.000000
vn 0.000000 1.000000 0.000000
vn 0.000000 1.000000 0.000000
vn 0.000000 0.000000 1.000000
vn 0.000000 0.000000 1.000000
vn 0.000000 0.000000 1.000000
vn 0.000000 0.000000 1.000000
vn -0.000000 0.745163 -0.666882
vn -0.000000 0.745163 -0.666882
vn -0.000000 0.745163 -0.666882
vn -0.000000 0.745163 -0.666882
vn -0.000000 0.207389 -0.978259
vn -0.000000 0.207389 -0.978259
vn -0.000000 0.207389 -0.978259
vn -0.000000 0.207389 -0.978259
vn -1.000000 0.000001 0.000000
vn -1.000000 0.000001 0.000000
vn -1.000000 0.000001 0.000000
vn -1.000000 0.000001 0.000000
vn -1.000000 -0.000003 0.000000
vn -1.000000 -0.000003 0.000000
vn -1.000000 -0.000003 0.000000
vn -1.000000 -0.000003 0.000000
vn -1.000000 0.000000 0.000000
vn -1.000000 0.000000 0.000000
vn -1.000000 0.000000 0.000000
vn -1.000000 0.000000 0.000000
vn -1.000000 0.000000 0.000000
vn -1.000000 0.000000 0.000000
vn -1.000000 0.000000 0.000000
vn -1.000000 0.000000 0.000000
vn -1.000000 -0.000001 0.000000
vn -1.000000 -0.000001 0.000000
vn -1.000000 -0.000001 0.000000
vn -1.000000 -0.000001 0.000000
vn 1.000000 0.000002 0.000000
vn 1.000000 0.000002 0.000000
vn 1.000000 0.000002 0.000000
vn 1.000000 0.000002 0.000000
vn 1.000000 -0.000002 0.000000
vn 1.000000 -0.000002 0.000000
vn 1.000000 -0.000002 0.000000
vn 1.000000 -0.000002 0.000000
vn 1.000000 0.000000 0.000000
vn 1.000000 0.000000 0.000000
vn 1.000000 0.000000 0.000000
vn 1.000000 0.000000 0.000000
vn 1.000000 -0.000001 0.000000
vn 1.000000 -0.000001 0.000000
vn 1.000000 -0.000001 0.000000
vn 1.000000 -0.000001 0.000000
vn 1.000000 -0.000001 0.000000
vn 1.000000 -0.000001 0.000000
vn 1.000000 -0.000001 0.000000
vn 1.000000 -0.000001 0.000000
vn 0.000000 -1.000000 0.000000
vn 0.000000 -1.000000 0.000000
vn 0.000000 -1.000000 0.000000
vn 0.000000 -1.000000 0.000000
vn 0.000000 -0.745164 0.666882
vn 0.000000 -0.745164 0.666882
vn 0.000000 -0.745164 0.666882
vn 0.000000 -0.745164 0.666882
vn 0.000000 -0.207388 0.978259
vn 0.000000 -0.207388 0.978259
vn 0.000000 -0.207388 0.978259
vn 0.000000 -0.207388 0.978259
vn 0.000000 1.000000 0.000000
vn 0.000000 1.000000 0.000000
vn 0.000000 1.000000 0.000000
vn 0.000000 1.000000 0.000000
vn -0.000000 0.000000 -1.000000
vn -0.000000 0.000000 -1.000000
vn -0.000000 0.000000 -1.000000
vn -0.000000 0.000000 -1.000000
vn -0.000000 0.000000 -1.000000
vn -0.000000 0.000000 -1.000000
vn -0.000000 0.000000 -1.000000
vn -0.000000 0.000000 -1.000000
vn 0.000000 1.000000 0.000000
vn 0.000000 1.000000 0.000000
vn 0.000000 1.000000 0.000000
vn 0.000000 1.000000 0.000000
vn 0.000000 0.000000 1.000000
vn 0.000000 0.000000 1.000000
vn 0.000000 0.000000 1.000000
vn 0.000000 0.000000 1.000000
vn 0.000000 -1.000000 0.000000
vn 0.000000 -1.000000 0.000000
vn 0.000000 -1.000000 0.000000
vn 0.000000 -1.000000 0.000000
vn -1.000000 0.000000 0.000000
vn -1.000000 0.000000 0.000000
vn -1.000000 0.000000 0.000000
vn -1.000000 0.000000 0.000000
vn 1.000000 0.000000 0.000000
vn 1.000000 0.000000 0.000000
vn 1.000000 0.000000 0.000000
vn 1.000000 0.000000 0.000000
vn -0.500001 0.000000 0.866025
vn 0.500001 0.000000 0.866025
vn 0.500001 0.000000 0.866025
vn -0.500001 0.000000 0.866025
vn 0.500001 0.000000 0.866025
vn 1.000000 0.000000 0.000000
vn 1.000000 0.000000 0.000000
vn 0.500001 0.000000 0.866025
vn 1.000000 0.000000 0.000000
vn 0.499998 0.000000 -0.866026
vn 0.499998 0.000000 -0.866026
vn 1.000000 0.000000 0.000000
vn 0.499998 0.000000 -0.866026
vn -0.499998 0.000000 -0.866026
vn -0.499998 0.000000 -0.866026
vn 0.499998 0.000000 -0.866026
vn -0.499998 0.000000 -0.866026
vn -1.000000 0.000000 0.000000
vn -1.000000 0.000000 0.000000
vn -0.499998 0.000000 -0.866026
vn -1.000000 0.000000 0.000000
vn -0.500001 0.000000 0.866025
vn -0.500001 0.000000 0.866025
vn -1.000000 0.000000 0.000000
vn 0.000000 -1.000000 0.000000
vn 0.000000 -1.000000 0.000000
vn 0.000000 -1.000000 0.000000
vn 0.000000 -1.000000 0.000000
vn 0.000000 -1.000000 0.000000
vn 0.000000 -1.000000 0.000000
vn 0.000000 -1.000000 0.000000
vn 0.000000 -1.000000 0.000000
vn 0.000000 -1.000000 0.000000
vn 0.000000 -1.000000 0.000000
vn 0.000000 -1.000000 0.000000
vn 0.000000 -1.000000 0.000000
vn 0.000000 -1.000000 0.000000
vn 0.000000 -1.000000 0.000000
vn 0.000000 -1.000000 0.000000
vn 0.000000 -1.000000 0.000000
vn 0.000000 -1.000000 0.000000
vn 0.000000 -1.000000 0.000000
vn 0.000000 1.000000 0.000000
vn 0.000000 1.000000 0.000000
vn 0.000000 1.000000 0.000000
vn 0.000000 1.000000 0.000000
vn 0.000000 1.000000 0.000000
vn 0.000000 1.000000 0.000000
vn 0.000000 1.000000 0.000000
vn 0.000000 1.000000 0.000000
vn 0.000000 1.000000 0.000000
vn 0.000000 1.000000 0.000000
vn 0.000000 1.000000 0.000000
vn 0.000000 1.000000 0.000000
vn 0.000000 1.000000 0.000000
vn 0.000000 1.000000 0.000000
vn 0.000000 1.000000 0.000000
vn 0.000000 1.000000 0.000000
vn 0.000000 1.000000 0.000000
vn 0.000000 1.000000 0.000000
vn 0.500001 0.000000 0.866025
vn 0.500001 0.000000 0.866025
vn -0.500001 0.000000 0.866025
vn -0.500001 0.000000 0.866025
vn -0.500001 0.000000 0.866025
vn -0.500001 0.000000 0.866025
vn -1.000000 0.000000 0.000000
vn -1.000000 0.000000 0.000000
vn -1.000000 0.000000 0.000000
vn -1.000000 0.000000 0.000000
vn -0.499998 0.000000 -0.866026
vn -0.499998 0.000000 -0.866026
vn -0.499998 0.000000 -0.866026
vn -0.499998 0.000000 -0.866026
vn 0.499998 0.000000 -0.866026
vn 0.499998 0.000000 -0.866026
vn 0.499998 0.000000 -0.866026
vn 0.499998 0.000000 -0.866026
vn 1.000000 0.000000 0.000000
vn 1.000000 0.000000 0.000000
vn 1.000000 0.000000 0.000000
vn 1.000000 0.000000 0.000000
vn 0.500001 0.000000 0.866025
vn 0.500001 0.000000 0.866025
vn 0.000000 -1.000000 0.000000
vn 0.000000 -1.000000 0.000000
vn 0.000000 -1.000000 0.000000
vn 0.000000 -1.000000 0.000000
vn 0.000000 -1.000000 0.000000
vn 0.000000 -1.000000 0.000000
vn 0.000000 -1.000000 0.000000
vn 0.000000 -1.000000 0.000000
vn 0.000000 -1.000000 0.000000
vn 0.000000 -1.000000 0.000000
vn 0.000000 -1.000000 0.000000
vn 0.000000 -1.000000 0.000000
vn 0.000000 -1.000000 0.000000
vn 0.000000 -1.000000 0.000000
vn 0.000000 -1.000000 0.000000
vn 0.000000 -1.000000 0.000000
vn 0.000000 -1.000000 0.000000
vn 0.000000 -1.000000 0.000000
vn 0.000000 1.000000 0.000000
vn 0.000000 1.000000 0.000000
vn 0.000000 1.000000 0.000000
vn 0.000000 1.000000 0.000000
vn 0.000000 1.000000 0.000000
vn 0.000000 1.000000 0.000000
vn 0.000000 1.000000 0.000000
vn 0.000000 1.000000 0.000000
vn 0.000000 1.000000 0.000000
vn 0.000000 1.000000 0.000000
vn 0.000000 1.000000 0.000000
vn 0.000000 1.000000 0.000000
vn 0.000000 1.000000 0.000000
vn 0.000000 1.000000 0.000000
vn 0.000000 1.000000 0.000000
vn 0.000000 1.000000 0.000000
vn 0.000000 1.000000 0.000000
vn 0.000000 1.000000 0.000000
vn 0.000000 -0.276999 -0.960870
vn 0.000000 -0.276999 -0.960870
vn 0.000000 -0.276999 -0.960870
vn 0.000000 -0.276999 -0.960870
vn 1.000000 0.000000 0.000000
vn 1.000000 0.000000 0.000000
vn 1.000000 0.000000 0.000000
vn 1.000000 0.000000 0.000000
vn -1.000000 0.000000 0.000000
vn -1.000000 0.000000 0.000000
vn -1.000000 0.000000 0.000000
vn -1.000000 0.000000 0.000000
vn 0.000000 -1.000000 0.000000
vn 0.000000 -1.000000 0.000000
vn 0.000000 -1.000000 0.000000
vn 0.000000 -1.000000 0.000000
vn 0.000000 1.000000 0.000000
vn 0.000000 1.000000 0.000000
vn 0.000000 1.000000 0.000000
vn 0.000000 1.000000 0.000000
vn 0.000000 0.000000 1.000000
vn 0.000000 0.000000 1.000000
vn 0.000000 0.000000 1.000000
vn 0.000000 0.000000 1.000000
s off
g mesh_bakeryshelf:polySurface144
usemtl mesh_bakeryshelf:lambert2SG
f 4/1/1 3/2/2 1/3/3 2/4/4
f 5/5/5 6/6/6 3/2/7 4/1/8
f 4/7/9 8/8/10 7/9/11 5/10/12
f 9/11/13 8/8/14 4/7/15 2/12/16
f 1/13/17 10/14/18 9/15/19 2/16/20
f 3/17/21 11/18/22 10/14/23 1/13/24
f 6/19/25 12/20/26 11/18/27 3/17/28
f 8/8/29 9/11/30 10/21/31 11/22/32
f 7/9/33 8/8/34 11/22/35 12/23/36
f 13/24/37 14/25/38 16/26/39 15/27/40
f 15/27/41 16/26/42 18/28/43 17/29/44
f 17/29/45 18/28/46 20/30/47 19/31/48
f 19/32/49 20/33/50 14/25/51 13/24/52
f 14/34/53 20/35/54 18/28/55 16/26/56
f 19/36/57 13/37/58 15/27/59 17/29/60
f 23/38/61 24/39/62 22/40/63 21/41/64
f 25/42/65 26/43/66 24/39/67 23/38/68
f 28/44/69 27/45/70 25/46/71 23/47/72
f 29/48/73 28/44/74 23/47/75 21/49/76
f 30/50/77 29/48/78 21/49/79 22/51/80
f 22/40/81 24/39/82 31/52/83 30/53/84
f 32/54/85 31/52/86 24/39/87 26/43/88
f 28/55/89 29/56/90 30/57/91 31/58/92
f 27/59/93 28/55/94 31/58/95 32/60/96
f 33/61/97 35/62/98 36/63/99 34/64/100
f 41/65/101 39/66/102 33/67/103 34/68/104
f 35/69/105 37/70/106 38/71/107 36/72/108
f 37/73/109 42/74/110 40/75/111 38/76/112
f 34/77/113 36/78/114 45/79/115 44/80/116
f 36/81/117 38/82/118 43/83/119 45/84/120
f 40/85/121 41/86/122 46/87/123 47/88/124
f 46/89/125 41/90/126 34/91/127 44/92/128
f 38/93/129 40/94/130 47/95/131 43/96/132
f 37/70/133 35/69/134 49/97/135 48/98/136
f 35/62/137 33/61/138 50/99/139 49/100/140
f 50/101/141 33/67/142 39/66/143 52/102/144
f 39/103/145 42/104/146 51/105/147 52/106/148
f 42/74/149 37/73/150 48/107/151 51/108/152
f 50/101/153 52/102/154 46/89/155 44/92/156
f 47/88/157 46/87/158 52/106/159 51/105/160
f 43/96/161 47/95/162 51/108/163 48/107/164
f 45/84/165 43/83/166 48/98/167 49/97/168
f 44/80/169 45/79/170 49/100/171 50/99/172
f 53/109/173 55/110/174 56/111/175 54/112/176
f 61/113/177 59/114/178 53/115/179 54/116/180
f 55/117/181 57/118/182 58/119/183 56/120/184
f 57/121/185 62/122/186 60/123/187 58/124/188
f 54/112/189 56/111/190 65/125/191 64/126/192
f 56/120/193 58/119/194 63/127/195 65/128/196
f 60/129/197 61/130/198 66/131/199 67/132/200
f 66/133/201 61/113/202 54/116/203 64/134/204
f 58/124/205 60/123/206 67/135/207 63/136/208
f 57/137/209 55/138/210 69/139/211 68/140/212
f 55/141/213 53/142/214 70/143/215 69/144/216
f 70/145/217 53/146/218 59/147/219 72/148/220
f 59/149/221 62/150/222 71/151/223 72/152/224
f 62/153/225 57/154/226 68/155/227 71/156/228
f 64/126/229 65/125/230 69/144/231 70/143/232
f 65/128/233 63/127/234 68/140/235 69/139/236
f 63/136/237 67/135/238 71/156/239 68/155/240
f 67/132/241 66/131/242 72/152/243 71/151/244
f 70/145/245 72/148/246 66/133/247 64/134/248
f 73//249 74//250 76//251 75//252
f 75//253 76//254 78//255 77//256
f 77//257 78//258 80//259 79//260
f 79//261 80//262 74//263 73//264
f 74//265 80//266 78//267 76//268
f 79//269 73//270 75//271 77//272
f 81/157/273 82/158/274 88/159/275 87/160/276
f 82/158/277 83/161/278 89/162/279 88/159/280
f 83/161/281 84/163/282 90/164/283 89/162/284
f 84/163/285 85/165/286 91/166/287 90/164/288
f 85/165/289 86/167/290 92/168/291 91/166/292
f 86/167/293 81/169/294 87/170/295 92/168/296
f 82/171/297 81/172/298 93/173/299
f 83/174/300 82/171/301 93/173/302
f 84/175/303 83/174/304 93/173/305
f 85/176/306 84/175/307 93/173/308
f 86/177/309 85/176/310 93/173/311
f 81/172/312 86/177/313 93/173/314
f 87/178/315 88/179/316 94/180/317
f 88/179/318 89/181/319 94/180/320
f 89/181/321 90/182/322 94/180/323
f 90/182/324 91/183/325 94/180/326
f 91/183/327 92/184/328 94/180/329
f 92/184/330 87/178/331 94/180/332
f 95/185/333 101/186/334 102/187/335 96/188/336
f 96/188/337 102/187/338 103/189/339 97/190/340
f 97/190/341 103/189/342 104/191/343 98/192/344
f 98/192/345 104/191/346 105/193/347 99/194/348
f 99/194/349 105/193/350 106/195/351 100/196/352
f 100/196/353 106/195/354 101/197/355 95/198/356
f 96/199/357 107/200/358 95/201/359
f 97/202/360 107/200/361 96/199/362
f 98/203/363 107/200/364 97/202/365
f 99/204/366 107/200/367 98/203/368
f 100/205/369 107/200/370 99/204/371
f 95/201/372 107/200/373 100/205/374
f 101/206/375 108/207/376 102/208/377
f 102/208/378 108/207/379 103/209/380
f 103/209/381 108/207/382 104/210/383
f 104/210/384 108/207/385 105/211/386
f 105/211/387 108/207/388 106/212/389
f 106/212/390 108/207/391 101/206/392
f 112/213/393 110/214/394 109/215/395 111/216/396
f 110/217/397 114/218/398 113/219/399 109/220/400
f 111/221/401 115/222/402 116/223/403 112/224/404
f 109/225/405 113/226/406 115/227/407 111/228/408
f 112/229/409 116/230/410 114/231/411 110/232/412
f 113/233/413 114/234/414 116/235/415 115/236/416
