Library\Bee\artifacts\movedfrom\Unity.InputSystem.ref.dll_12033338391456648262.movedfrom
Library\Bee\artifacts\movedfrom\Unity.Timeline.ref.dll_639823423384821306.movedfrom
Library\Bee\artifacts\movedfrom\UnityEngine.UI.ref.dll_12664940582929284107.movedfrom
Library\Bee\artifacts\movedfrom\UnityEngine.AccessibilityModule.dll_11950101153387787356.movedfrom
Library\Bee\artifacts\movedfrom\UnityEngine.AIModule.dll_3457613717017849182.movedfrom
Library\Bee\artifacts\movedfrom\UnityEngine.AndroidJNIModule.dll_12183865297237008924.movedfrom
Library\Bee\artifacts\movedfrom\UnityEngine.AnimationModule.dll_5998917308730350594.movedfrom
Library\Bee\artifacts\movedfrom\UnityEngine.ARModule.dll_16820573379617311783.movedfrom
Library\Bee\artifacts\movedfrom\UnityEngine.AssetBundleModule.dll_17183289740158117744.movedfrom
Library\Bee\artifacts\movedfrom\UnityEngine.AudioModule.dll_12028443993441840244.movedfrom
Library\Bee\artifacts\movedfrom\UnityEngine.ClothModule.dll_996978938668714840.movedfrom
Library\Bee\artifacts\movedfrom\UnityEngine.CoreModule.dll_7190115553528917877.movedfrom
Library\Bee\artifacts\movedfrom\UnityEngine.CrashReportingModule.dll_7198877425045372461.movedfrom
Library\Bee\artifacts\movedfrom\UnityEngine.DirectorModule.dll_11756816629979165394.movedfrom
Library\Bee\artifacts\movedfrom\UnityEngine.dll_14099333128068956176.movedfrom
Library\Bee\artifacts\movedfrom\UnityEngine.DSPGraphModule.dll_12140011178800776179.movedfrom
Library\Bee\artifacts\movedfrom\UnityEngine.GameCenterModule.dll_15232039298892452621.movedfrom
Library\Bee\artifacts\movedfrom\UnityEngine.GIModule.dll_14427336832180868472.movedfrom
Library\Bee\artifacts\movedfrom\UnityEngine.GridModule.dll_4699937143994107244.movedfrom
Library\Bee\artifacts\movedfrom\UnityEngine.HotReloadModule.dll_15314822070307895172.movedfrom
Library\Bee\artifacts\movedfrom\UnityEngine.ImageConversionModule.dll_13705666431328175887.movedfrom
Library\Bee\artifacts\movedfrom\UnityEngine.IMGUIModule.dll_16090584646113935445.movedfrom
Library\Bee\artifacts\movedfrom\UnityEngine.InputLegacyModule.dll_9204348393553321313.movedfrom
Library\Bee\artifacts\movedfrom\UnityEngine.InputModule.dll_964726644587647256.movedfrom
Library\Bee\artifacts\movedfrom\UnityEngine.JSONSerializeModule.dll_427510922561819878.movedfrom
Library\Bee\artifacts\movedfrom\UnityEngine.LocalizationModule.dll_17883465941862669759.movedfrom
Library\Bee\artifacts\movedfrom\UnityEngine.ParticleSystemModule.dll_13184804872387168699.movedfrom
Library\Bee\artifacts\movedfrom\UnityEngine.PerformanceReportingModule.dll_116227812786207028.movedfrom
Library\Bee\artifacts\movedfrom\UnityEngine.Physics2DModule.dll_11522001643542254487.movedfrom
Library\Bee\artifacts\movedfrom\UnityEngine.PhysicsModule.dll_7879347058926726597.movedfrom
Library\Bee\artifacts\movedfrom\UnityEngine.ProfilerModule.dll_15379462486909106655.movedfrom
Library\Bee\artifacts\movedfrom\UnityEngine.RuntimeInitializeOnLoadManagerInitializerModule.dll_4506109394985988704.movedfrom
Library\Bee\artifacts\movedfrom\UnityEngine.ScreenCaptureModule.dll_2294162280215069000.movedfrom
Library\Bee\artifacts\movedfrom\UnityEngine.SharedInternalsModule.dll_4775378931777651295.movedfrom
Library\Bee\artifacts\movedfrom\UnityEngine.SpriteMaskModule.dll_13587225498357196935.movedfrom
Library\Bee\artifacts\movedfrom\UnityEngine.SpriteShapeModule.dll_565338457755311994.movedfrom
Library\Bee\artifacts\movedfrom\UnityEngine.StreamingModule.dll_564459387588465472.movedfrom
Library\Bee\artifacts\movedfrom\UnityEngine.SubstanceModule.dll_16465284601979031886.movedfrom
Library\Bee\artifacts\movedfrom\UnityEngine.SubsystemsModule.dll_2827394133897629850.movedfrom
Library\Bee\artifacts\movedfrom\UnityEngine.TerrainModule.dll_9772683468245235379.movedfrom
Library\Bee\artifacts\movedfrom\UnityEngine.TerrainPhysicsModule.dll_13219330444161254472.movedfrom
Library\Bee\artifacts\movedfrom\UnityEngine.TextCoreModule.dll_4315414199848051426.movedfrom
Library\Bee\artifacts\movedfrom\UnityEngine.TextRenderingModule.dll_5266381949651992893.movedfrom
Library\Bee\artifacts\movedfrom\UnityEngine.TilemapModule.dll_2782084750806079420.movedfrom
Library\Bee\artifacts\movedfrom\UnityEngine.TLSModule.dll_3356026478794802521.movedfrom
Library\Bee\artifacts\movedfrom\UnityEngine.UIElementsModule.dll_3133183057963125905.movedfrom
Library\Bee\artifacts\movedfrom\UnityEngine.UIElementsNativeModule.dll_10063855996524136776.movedfrom
Library\Bee\artifacts\movedfrom\UnityEngine.UIModule.dll_3129869286808810250.movedfrom
Library\Bee\artifacts\movedfrom\UnityEngine.UmbraModule.dll_2432588308869470183.movedfrom
Library\Bee\artifacts\movedfrom\UnityEngine.UNETModule.dll_17757328196546143470.movedfrom
Library\Bee\artifacts\movedfrom\UnityEngine.UnityAnalyticsModule.dll_15463468820338924471.movedfrom
Library\Bee\artifacts\movedfrom\UnityEngine.UnityConnectModule.dll_2856718317921081515.movedfrom
Library\Bee\artifacts\movedfrom\UnityEngine.UnityCurlModule.dll_9681913137718398447.movedfrom
Library\Bee\artifacts\movedfrom\UnityEngine.UnityTestProtocolModule.dll_7345930685216496093.movedfrom
Library\Bee\artifacts\movedfrom\UnityEngine.UnityWebRequestAssetBundleModule.dll_12206898659059363784.movedfrom
Library\Bee\artifacts\movedfrom\UnityEngine.UnityWebRequestAudioModule.dll_8762105412633707468.movedfrom
Library\Bee\artifacts\movedfrom\UnityEngine.UnityWebRequestModule.dll_14975408478179582350.movedfrom
Library\Bee\artifacts\movedfrom\UnityEngine.UnityWebRequestTextureModule.dll_2758716706499431201.movedfrom
Library\Bee\artifacts\movedfrom\UnityEngine.UnityWebRequestWWWModule.dll_4318635593661492957.movedfrom
Library\Bee\artifacts\movedfrom\UnityEngine.VehiclesModule.dll_1939806718170628717.movedfrom
Library\Bee\artifacts\movedfrom\UnityEngine.VFXModule.dll_12642053562290663110.movedfrom
Library\Bee\artifacts\movedfrom\UnityEngine.VideoModule.dll_14697253841701324825.movedfrom
Library\Bee\artifacts\movedfrom\UnityEngine.VRModule.dll_9097744098414000258.movedfrom
Library\Bee\artifacts\movedfrom\UnityEngine.WindModule.dll_15715107665469287902.movedfrom
Library\Bee\artifacts\movedfrom\UnityEngine.XRModule.dll_12754318470135006688.movedfrom